\@ifundefined {etoctocstyle}{\let \etoc@startlocaltoc \@gobble \let \etoc@settocdepth \@gobble \let \etoc@depthtag \@gobble \let \etoc@setlocaltop \@gobble }{}
\contentsline {chapter}{\numberline {1}Class Index}{1}{chapter.1}%
\contentsline {section}{\numberline {1.1}Class List}{1}{section.1.1}%
\contentsline {chapter}{\numberline {2}File Index}{3}{chapter.2}%
\contentsline {section}{\numberline {2.1}File List}{3}{section.2.1}%
\contentsline {chapter}{\numberline {3}Class Documentation}{5}{chapter.3}%
\contentsline {section}{\numberline {3.1}List Class Reference}{5}{section.3.1}%
\contentsline {subsection}{\numberline {3.1.1}Constructor \& Destructor Documentation}{5}{subsection.3.1.1}%
\contentsline {subsubsection}{\numberline {3.1.1.1}List()}{6}{subsubsection.3.1.1.1}%
\contentsline {subsection}{\numberline {3.1.2}Member Function Documentation}{6}{subsection.3.1.2}%
\contentsline {subsubsection}{\numberline {3.1.2.1}get\_node\_by\_type\_and\_name()}{6}{subsubsection.3.1.2.1}%
\contentsline {subsubsection}{\numberline {3.1.2.2}insert\_node\_at\_begin()}{6}{subsubsection.3.1.2.2}%
\contentsline {subsubsection}{\numberline {3.1.2.3}insert\_node\_at\_end()}{7}{subsubsection.3.1.2.3}%
\contentsline {subsubsection}{\numberline {3.1.2.4}print\_list()}{7}{subsubsection.3.1.2.4}%
\contentsline {subsubsection}{\numberline {3.1.2.5}remove\_node()}{8}{subsubsection.3.1.2.5}%
\contentsline {subsubsection}{\numberline {3.1.2.6}search\_node()}{8}{subsubsection.3.1.2.6}%
\contentsline {subsubsection}{\numberline {3.1.2.7}search\_node\_by\_type\_and\_name()}{8}{subsubsection.3.1.2.7}%
\contentsline {subsection}{\numberline {3.1.3}Member Data Documentation}{9}{subsection.3.1.3}%
\contentsline {subsubsection}{\numberline {3.1.3.1}first\_node}{9}{subsubsection.3.1.3.1}%
\contentsline {subsubsection}{\numberline {3.1.3.2}n\_nodos}{9}{subsubsection.3.1.3.2}%
\contentsline {subsubsection}{\numberline {3.1.3.3}ult\_nodo}{9}{subsubsection.3.1.3.3}%
\contentsline {section}{\numberline {3.2}Node Class Reference}{9}{section.3.2}%
\contentsline {subsection}{\numberline {3.2.1}Constructor \& Destructor Documentation}{10}{subsection.3.2.1}%
\contentsline {subsubsection}{\numberline {3.2.1.1}Node()\hspace {0.1cm}{\footnotesize \ttfamily [1/2]}}{10}{subsubsection.3.2.1.1}%
\contentsline {subsubsection}{\numberline {3.2.1.2}Node()\hspace {0.1cm}{\footnotesize \ttfamily [2/2]}}{10}{subsubsection.3.2.1.2}%
\contentsline {subsection}{\numberline {3.2.2}Member Function Documentation}{10}{subsection.3.2.2}%
\contentsline {subsubsection}{\numberline {3.2.2.1}clone\_node()\hspace {0.1cm}{\footnotesize \ttfamily [1/2]}}{11}{subsubsection.3.2.2.1}%
\contentsline {subsubsection}{\numberline {3.2.2.2}clone\_node()\hspace {0.1cm}{\footnotesize \ttfamily [2/2]}}{11}{subsubsection.3.2.2.2}%
\contentsline {subsubsection}{\numberline {3.2.2.3}has\_attributes()}{11}{subsubsection.3.2.2.3}%
\contentsline {subsubsection}{\numberline {3.2.2.4}has\_child\_nodes()}{11}{subsubsection.3.2.2.4}%
\contentsline {subsubsection}{\numberline {3.2.2.5}insert\_before()}{12}{subsubsection.3.2.2.5}%
\contentsline {subsubsection}{\numberline {3.2.2.6}insert\_child\_at\_end()}{12}{subsubsection.3.2.2.6}%
\contentsline {subsubsection}{\numberline {3.2.2.7}remove\_child()}{12}{subsubsection.3.2.2.7}%
\contentsline {subsubsection}{\numberline {3.2.2.8}remplace\_child()}{13}{subsubsection.3.2.2.8}%
\contentsline {subsection}{\numberline {3.2.3}Member Data Documentation}{13}{subsection.3.2.3}%
\contentsline {subsubsection}{\numberline {3.2.3.1}attribute}{13}{subsubsection.3.2.3.1}%
\contentsline {subsubsection}{\numberline {3.2.3.2}child\_list}{14}{subsubsection.3.2.3.2}%
\contentsline {subsubsection}{\numberline {3.2.3.3}content}{14}{subsubsection.3.2.3.3}%
\contentsline {subsubsection}{\numberline {3.2.3.4}dir\_memory}{14}{subsubsection.3.2.3.4}%
\contentsline {subsubsection}{\numberline {3.2.3.5}first\_child}{14}{subsubsection.3.2.3.5}%
\contentsline {subsubsection}{\numberline {3.2.3.6}id}{14}{subsubsection.3.2.3.6}%
\contentsline {subsubsection}{\numberline {3.2.3.7}is\_meltdown}{14}{subsubsection.3.2.3.7}%
\contentsline {subsubsection}{\numberline {3.2.3.8}last\_child}{15}{subsubsection.3.2.3.8}%
\contentsline {subsubsection}{\numberline {3.2.3.9}parent\_node}{15}{subsubsection.3.2.3.9}%
\contentsline {subsubsection}{\numberline {3.2.3.10}prev}{15}{subsubsection.3.2.3.10}%
\contentsline {subsubsection}{\numberline {3.2.3.11}sgte}{15}{subsubsection.3.2.3.11}%
\contentsline {subsubsection}{\numberline {3.2.3.12}tag\_name}{15}{subsubsection.3.2.3.12}%
\contentsline {subsubsection}{\numberline {3.2.3.13}tag\_type}{15}{subsubsection.3.2.3.13}%
\contentsline {chapter}{\numberline {4}File Documentation}{17}{chapter.4}%
\contentsline {section}{\numberline {4.1}definitions.\discretionary {\mbox {\scriptsize $\hookleftarrow $}}{}{}h File Reference}{17}{section.4.1}%
\contentsline {section}{\numberline {4.2}get\discretionary {\mbox {\scriptsize $\hookleftarrow $}}{}{}\_\discretionary {\mbox {\scriptsize $\hookleftarrow $}}{}{}html/definitions.h File Reference}{17}{section.4.2}%
\contentsline {section}{\numberline {4.3}interface/definitions.h File Reference}{17}{section.4.3}%
\contentsline {subsection}{\numberline {4.3.1}Macro Definition Documentation}{18}{subsection.4.3.1}%
\contentsline {subsubsection}{\numberline {4.3.1.1}ANSI\_COLOR\_RESET}{18}{subsubsection.4.3.1.1}%
\contentsline {subsubsection}{\numberline {4.3.1.2}ANSI\_COLOR\_YELLOW}{18}{subsubsection.4.3.1.2}%
\contentsline {section}{\numberline {4.4}parser/definitions.h File Reference}{18}{section.4.4}%
\contentsline {section}{\numberline {4.5}render/definitions.h File Reference}{18}{section.4.5}%
\contentsline {section}{\numberline {4.6}dom\discretionary {\mbox {\scriptsize $\hookleftarrow $}}{}{}\_\discretionary {\mbox {\scriptsize $\hookleftarrow $}}{}{}struct/list.cpp File Reference}{18}{section.4.6}%
\contentsline {subsection}{\numberline {4.6.1}Macro Definition Documentation}{19}{subsection.4.6.1}%
\contentsline {subsubsection}{\numberline {4.6.1.1}MAX\_HIJOS}{19}{subsubsection.4.6.1.1}%
\contentsline {section}{\numberline {4.7}dom\discretionary {\mbox {\scriptsize $\hookleftarrow $}}{}{}\_\discretionary {\mbox {\scriptsize $\hookleftarrow $}}{}{}struct/list.h File Reference}{19}{section.4.7}%
\contentsline {section}{\numberline {4.8}dom\discretionary {\mbox {\scriptsize $\hookleftarrow $}}{}{}\_\discretionary {\mbox {\scriptsize $\hookleftarrow $}}{}{}struct/node.cpp File Reference}{19}{section.4.8}%
\contentsline {subsection}{\numberline {4.8.1}Macro Definition Documentation}{19}{subsection.4.8.1}%
\contentsline {subsubsection}{\numberline {4.8.1.1}MAX\_HIJOS}{19}{subsubsection.4.8.1.1}%
\contentsline {section}{\numberline {4.9}dom\discretionary {\mbox {\scriptsize $\hookleftarrow $}}{}{}\_\discretionary {\mbox {\scriptsize $\hookleftarrow $}}{}{}struct/node.h File Reference}{20}{section.4.9}%
\contentsline {subsection}{\numberline {4.9.1}Macro Definition Documentation}{20}{subsection.4.9.1}%
\contentsline {subsubsection}{\numberline {4.9.1.1}MAX\_HIJOS}{20}{subsubsection.4.9.1.1}%
\contentsline {section}{\numberline {4.10}get\discretionary {\mbox {\scriptsize $\hookleftarrow $}}{}{}\_\discretionary {\mbox {\scriptsize $\hookleftarrow $}}{}{}html/get\discretionary {\mbox {\scriptsize $\hookleftarrow $}}{}{}\_\discretionary {\mbox {\scriptsize $\hookleftarrow $}}{}{}html.cpp File Reference}{20}{section.4.10}%
\contentsline {subsection}{\numberline {4.10.1}Macro Definition Documentation}{20}{subsection.4.10.1}%
\contentsline {subsubsection}{\numberline {4.10.1.1}ARCHIVO}{21}{subsubsection.4.10.1.1}%
\contentsline {subsubsection}{\numberline {4.10.1.2}MAX}{21}{subsubsection.4.10.1.2}%
\contentsline {subsection}{\numberline {4.10.2}Function Documentation}{21}{subsection.4.10.2}%
\contentsline {subsubsection}{\numberline {4.10.2.1}ask\_url()}{21}{subsubsection.4.10.2.1}%
\contentsline {subsubsection}{\numberline {4.10.2.2}get\_html()}{21}{subsubsection.4.10.2.2}%
\contentsline {section}{\numberline {4.11}get\discretionary {\mbox {\scriptsize $\hookleftarrow $}}{}{}\_\discretionary {\mbox {\scriptsize $\hookleftarrow $}}{}{}html/get\discretionary {\mbox {\scriptsize $\hookleftarrow $}}{}{}\_\discretionary {\mbox {\scriptsize $\hookleftarrow $}}{}{}html.h File Reference}{22}{section.4.11}%
\contentsline {subsection}{\numberline {4.11.1}Function Documentation}{22}{subsection.4.11.1}%
\contentsline {subsubsection}{\numberline {4.11.1.1}ask\_url()}{22}{subsubsection.4.11.1.1}%
\contentsline {subsubsection}{\numberline {4.11.1.2}check\_errors\_get\_html()}{22}{subsubsection.4.11.1.2}%
\contentsline {subsubsection}{\numberline {4.11.1.3}get\_html()}{22}{subsubsection.4.11.1.3}%
\contentsline {section}{\numberline {4.12}interface/interface.cpp File Reference}{23}{section.4.12}%
\contentsline {subsection}{\numberline {4.12.1}Macro Definition Documentation}{23}{subsection.4.12.1}%
\contentsline {subsubsection}{\numberline {4.12.1.1}A}{23}{subsubsection.4.12.1.1}%
\contentsline {subsection}{\numberline {4.12.2}Function Documentation}{23}{subsection.4.12.2}%
\contentsline {subsubsection}{\numberline {4.12.2.1}create\_newwin()}{23}{subsubsection.4.12.2.1}%
\contentsline {section}{\numberline {4.13}interface/interface.h File Reference}{24}{section.4.13}%
\contentsline {subsection}{\numberline {4.13.1}Function Documentation}{24}{subsection.4.13.1}%
\contentsline {subsubsection}{\numberline {4.13.1.1}Carga()}{24}{subsubsection.4.13.1.1}%
\contentsline {subsubsection}{\numberline {4.13.1.2}check\_errors\_get\_html()}{24}{subsubsection.4.13.1.2}%
\contentsline {subsubsection}{\numberline {4.13.1.3}create\_newwin()}{25}{subsubsection.4.13.1.3}%
\contentsline {subsubsection}{\numberline {4.13.1.4}menu()}{25}{subsubsection.4.13.1.4}%
\contentsline {section}{\numberline {4.14}interface/menu.cpp File Reference}{25}{section.4.14}%
\contentsline {subsection}{\numberline {4.14.1}Macro Definition Documentation}{26}{subsection.4.14.1}%
\contentsline {subsubsection}{\numberline {4.14.1.1}ARCHIVO}{26}{subsubsection.4.14.1.1}%
\contentsline {subsubsection}{\numberline {4.14.1.2}ARRAY\_SIZE}{26}{subsubsection.4.14.1.2}%
\contentsline {subsubsection}{\numberline {4.14.1.3}X}{26}{subsubsection.4.14.1.3}%
\contentsline {subsection}{\numberline {4.14.2}Function Documentation}{26}{subsection.4.14.2}%
\contentsline {subsubsection}{\numberline {4.14.2.1}check\_errors\_get\_html()}{27}{subsubsection.4.14.2.1}%
\contentsline {subsubsection}{\numberline {4.14.2.2}menu\_window()}{27}{subsubsection.4.14.2.2}%
\contentsline {subsubsection}{\numberline {4.14.2.3}static\_url\_window()}{28}{subsubsection.4.14.2.3}%
\contentsline {subsubsection}{\numberline {4.14.2.4}str2int()}{29}{subsubsection.4.14.2.4}%
\contentsline {subsubsection}{\numberline {4.14.2.5}url\_window()}{29}{subsubsection.4.14.2.5}%
\contentsline {subsection}{\numberline {4.14.3}Variable Documentation}{29}{subsection.4.14.3}%
\contentsline {subsubsection}{\numberline {4.14.3.1}altura}{29}{subsubsection.4.14.3.1}%
\contentsline {subsubsection}{\numberline {4.14.3.2}ancho}{30}{subsubsection.4.14.3.2}%
\contentsline {subsubsection}{\numberline {4.14.3.3}height}{30}{subsubsection.4.14.3.3}%
\contentsline {subsubsection}{\numberline {4.14.3.4}opciones}{30}{subsubsection.4.14.3.4}%
\contentsline {subsubsection}{\numberline {4.14.3.5}start\_x}{30}{subsubsection.4.14.3.5}%
\contentsline {subsubsection}{\numberline {4.14.3.6}start\_y}{30}{subsubsection.4.14.3.6}%
\contentsline {subsubsection}{\numberline {4.14.3.7}URL}{31}{subsubsection.4.14.3.7}%
\contentsline {subsubsection}{\numberline {4.14.3.8}width}{31}{subsubsection.4.14.3.8}%
\contentsline {subsubsection}{\numberline {4.14.3.9}x}{31}{subsubsection.4.14.3.9}%
\contentsline {subsubsection}{\numberline {4.14.3.10}y}{31}{subsubsection.4.14.3.10}%
\contentsline {section}{\numberline {4.15}interface/menu.h File Reference}{31}{section.4.15}%
\contentsline {subsection}{\numberline {4.15.1}Function Documentation}{31}{subsection.4.15.1}%
\contentsline {subsubsection}{\numberline {4.15.1.1}check\_errors\_get\_html()}{32}{subsubsection.4.15.1.1}%
\contentsline {subsubsection}{\numberline {4.15.1.2}menu\_window()}{32}{subsubsection.4.15.1.2}%
\contentsline {subsubsection}{\numberline {4.15.1.3}static\_url\_window()}{33}{subsubsection.4.15.1.3}%
\contentsline {subsubsection}{\numberline {4.15.1.4}url\_window()}{34}{subsubsection.4.15.1.4}%
\contentsline {section}{\numberline {4.16}interface/window.cpp File Reference}{34}{section.4.16}%
\contentsline {subsection}{\numberline {4.16.1}Function Documentation}{35}{subsection.4.16.1}%
\contentsline {subsubsection}{\numberline {4.16.1.1}cut\_string()}{35}{subsubsection.4.16.1.1}%
\contentsline {subsubsection}{\numberline {4.16.1.2}dom\_window()}{35}{subsubsection.4.16.1.2}%
\contentsline {subsubsection}{\numberline {4.16.1.3}errors\_window()}{36}{subsubsection.4.16.1.3}%
\contentsline {subsubsection}{\numberline {4.16.1.4}listener()}{36}{subsubsection.4.16.1.4}%
\contentsline {subsubsection}{\numberline {4.16.1.5}nodes\_window()}{37}{subsubsection.4.16.1.5}%
\contentsline {subsubsection}{\numberline {4.16.1.6}total\_window()}{37}{subsubsection.4.16.1.6}%
\contentsline {subsubsection}{\numberline {4.16.1.7}web\_window()}{38}{subsubsection.4.16.1.7}%
\contentsline {subsection}{\numberline {4.16.2}Variable Documentation}{38}{subsection.4.16.2}%
\contentsline {subsubsection}{\numberline {4.16.2.1}already\_done}{39}{subsubsection.4.16.2.1}%
\contentsline {subsubsection}{\numberline {4.16.2.2}content}{39}{subsubsection.4.16.2.2}%
\contentsline {subsubsection}{\numberline {4.16.2.3}move\_x}{39}{subsubsection.4.16.2.3}%
\contentsline {subsubsection}{\numberline {4.16.2.4}move\_y}{39}{subsubsection.4.16.2.4}%
\contentsline {subsubsection}{\numberline {4.16.2.5}pre\_string}{39}{subsubsection.4.16.2.5}%
\contentsline {subsubsection}{\numberline {4.16.2.6}tags\_content}{39}{subsubsection.4.16.2.6}%
\contentsline {subsubsection}{\numberline {4.16.2.7}time\_scroll}{40}{subsubsection.4.16.2.7}%
\contentsline {section}{\numberline {4.17}interface/window.h File Reference}{40}{section.4.17}%
\contentsline {subsection}{\numberline {4.17.1}Function Documentation}{40}{subsection.4.17.1}%
\contentsline {subsubsection}{\numberline {4.17.1.1}dom\_window()}{40}{subsubsection.4.17.1.1}%
\contentsline {subsubsection}{\numberline {4.17.1.2}errors\_window()}{41}{subsubsection.4.17.1.2}%
\contentsline {subsubsection}{\numberline {4.17.1.3}listener()}{41}{subsubsection.4.17.1.3}%
\contentsline {subsubsection}{\numberline {4.17.1.4}nodes\_window()}{42}{subsubsection.4.17.1.4}%
\contentsline {subsubsection}{\numberline {4.17.1.5}total\_window()}{42}{subsubsection.4.17.1.5}%
\contentsline {subsubsection}{\numberline {4.17.1.6}web\_window()}{43}{subsubsection.4.17.1.6}%
\contentsline {section}{\numberline {4.18}main.\discretionary {\mbox {\scriptsize $\hookleftarrow $}}{}{}cpp File Reference}{43}{section.4.18}%
\contentsline {subsection}{\numberline {4.18.1}Function Documentation}{44}{subsection.4.18.1}%
\contentsline {subsubsection}{\numberline {4.18.1.1}main()}{44}{subsubsection.4.18.1.1}%
\contentsline {section}{\numberline {4.19}parser/checker.cpp File Reference}{45}{section.4.19}%
\contentsline {subsection}{\numberline {4.19.1}Function Documentation}{45}{subsection.4.19.1}%
\contentsline {subsubsection}{\numberline {4.19.1.1}counter\_nodes()}{46}{subsubsection.4.19.1.1}%
\contentsline {subsubsection}{\numberline {4.19.1.2}exist\_in\_array()}{46}{subsubsection.4.19.1.2}%
\contentsline {subsubsection}{\numberline {4.19.1.3}get\_tag\_number()}{46}{subsubsection.4.19.1.3}%
\contentsline {subsubsection}{\numberline {4.19.1.4}print\_result()}{47}{subsubsection.4.19.1.4}%
\contentsline {subsubsection}{\numberline {4.19.1.5}scroll\_list()}{47}{subsubsection.4.19.1.5}%
\contentsline {subsection}{\numberline {4.19.2}Variable Documentation}{47}{subsection.4.19.2}%
\contentsline {subsubsection}{\numberline {4.19.2.1}nodes}{47}{subsubsection.4.19.2.1}%
\contentsline {subsubsection}{\numberline {4.19.2.2}pos}{48}{subsubsection.4.19.2.2}%
\contentsline {subsubsection}{\numberline {4.19.2.3}totales}{48}{subsubsection.4.19.2.3}%
\contentsline {section}{\numberline {4.20}parser/checker.h File Reference}{48}{section.4.20}%
\contentsline {subsection}{\numberline {4.20.1}Function Documentation}{48}{subsection.4.20.1}%
\contentsline {subsubsection}{\numberline {4.20.1.1}counter\_nodes()}{48}{subsubsection.4.20.1.1}%
\contentsline {subsubsection}{\numberline {4.20.1.2}exist\_in\_array()}{49}{subsubsection.4.20.1.2}%
\contentsline {subsubsection}{\numberline {4.20.1.3}get\_tag\_number()}{49}{subsubsection.4.20.1.3}%
\contentsline {subsubsection}{\numberline {4.20.1.4}print\_result()}{49}{subsubsection.4.20.1.4}%
\contentsline {subsubsection}{\numberline {4.20.1.5}scroll\_list()}{50}{subsubsection.4.20.1.5}%
\contentsline {section}{\numberline {4.21}parser/export.cpp File Reference}{50}{section.4.21}%
\contentsline {subsection}{\numberline {4.21.1}Function Documentation}{50}{subsection.4.21.1}%
\contentsline {subsubsection}{\numberline {4.21.1.1}export\_dom\_struct()}{50}{subsubsection.4.21.1.1}%
\contentsline {subsubsection}{\numberline {4.21.1.2}export\_list\_nodes()}{51}{subsubsection.4.21.1.2}%
\contentsline {subsubsection}{\numberline {4.21.1.3}export\_web()}{51}{subsubsection.4.21.1.3}%
\contentsline {section}{\numberline {4.22}parser/export.h File Reference}{51}{section.4.22}%
\contentsline {subsection}{\numberline {4.22.1}Function Documentation}{51}{subsection.4.22.1}%
\contentsline {subsubsection}{\numberline {4.22.1.1}export\_dom\_struct()}{52}{subsubsection.4.22.1.1}%
\contentsline {subsubsection}{\numberline {4.22.1.2}export\_list\_nodes()}{52}{subsubsection.4.22.1.2}%
\contentsline {subsubsection}{\numberline {4.22.1.3}export\_web()}{52}{subsubsection.4.22.1.3}%
\contentsline {section}{\numberline {4.23}parser/legacy.cpp File Reference}{52}{section.4.23}%
\contentsline {subsection}{\numberline {4.23.1}Macro Definition Documentation}{53}{subsection.4.23.1}%
\contentsline {subsubsection}{\numberline {4.23.1.1}UNCLOSED\_TAGS}{53}{subsubsection.4.23.1.1}%
\contentsline {subsection}{\numberline {4.23.2}Function Documentation}{53}{subsection.4.23.2}%
\contentsline {subsubsection}{\numberline {4.23.2.1}check\_child\_tag()}{53}{subsubsection.4.23.2.1}%
\contentsline {subsubsection}{\numberline {4.23.2.2}clean\_string()}{54}{subsubsection.4.23.2.2}%
\contentsline {subsubsection}{\numberline {4.23.2.3}create\_child\_struct()}{54}{subsubsection.4.23.2.3}%
\contentsline {subsubsection}{\numberline {4.23.2.4}not\_close\_tag()}{54}{subsubsection.4.23.2.4}%
\contentsline {subsection}{\numberline {4.23.3}Variable Documentation}{55}{subsection.4.23.3}%
\contentsline {subsubsection}{\numberline {4.23.3.1}close}{55}{subsubsection.4.23.3.1}%
\contentsline {subsubsection}{\numberline {4.23.3.2}open}{55}{subsubsection.4.23.3.2}%
\contentsline {section}{\numberline {4.24}parser/legacy.h File Reference}{55}{section.4.24}%
\contentsline {subsection}{\numberline {4.24.1}Function Documentation}{55}{subsection.4.24.1}%
\contentsline {subsubsection}{\numberline {4.24.1.1}check\_child\_tag()}{56}{subsubsection.4.24.1.1}%
\contentsline {subsubsection}{\numberline {4.24.1.2}clean\_string()}{56}{subsubsection.4.24.1.2}%
\contentsline {subsubsection}{\numberline {4.24.1.3}create\_child\_struct()}{57}{subsubsection.4.24.1.3}%
\contentsline {subsubsection}{\numberline {4.24.1.4}not\_close\_tag()}{57}{subsubsection.4.24.1.4}%
\contentsline {section}{\numberline {4.25}parser/omite\discretionary {\mbox {\scriptsize $\hookleftarrow $}}{}{}\_\discretionary {\mbox {\scriptsize $\hookleftarrow $}}{}{}lines.cpp File Reference}{57}{section.4.25}%
\contentsline {subsection}{\numberline {4.25.1}Function Documentation}{58}{subsection.4.25.1}%
\contentsline {subsubsection}{\numberline {4.25.1.1}find\_gap\_tags()}{58}{subsubsection.4.25.1.1}%
\contentsline {subsubsection}{\numberline {4.25.1.2}omite\_pieces()}{58}{subsubsection.4.25.1.2}%
\contentsline {subsubsection}{\numberline {4.25.1.3}parse\_that\_position()}{59}{subsubsection.4.25.1.3}%
\contentsline {subsection}{\numberline {4.25.2}Variable Documentation}{59}{subsection.4.25.2}%
\contentsline {subsubsection}{\numberline {4.25.2.1}cont\_vect}{59}{subsubsection.4.25.2.1}%
\contentsline {subsubsection}{\numberline {4.25.2.2}vect}{59}{subsubsection.4.25.2.2}%
\contentsline {section}{\numberline {4.26}parser/omite\discretionary {\mbox {\scriptsize $\hookleftarrow $}}{}{}\_\discretionary {\mbox {\scriptsize $\hookleftarrow $}}{}{}lines.h File Reference}{59}{section.4.26}%
\contentsline {subsection}{\numberline {4.26.1}Function Documentation}{60}{subsection.4.26.1}%
\contentsline {subsubsection}{\numberline {4.26.1.1}find\_all\_comments()}{60}{subsubsection.4.26.1.1}%
\contentsline {subsubsection}{\numberline {4.26.1.2}find\_doctype()}{60}{subsubsection.4.26.1.2}%
\contentsline {subsubsection}{\numberline {4.26.1.3}find\_gap\_tags()}{60}{subsubsection.4.26.1.3}%
\contentsline {subsubsection}{\numberline {4.26.1.4}omite\_pieces()}{61}{subsubsection.4.26.1.4}%
\contentsline {subsubsection}{\numberline {4.26.1.5}parse\_that\_position()}{61}{subsubsection.4.26.1.5}%
\contentsline {section}{\numberline {4.27}parser/outprint.cpp File Reference}{61}{section.4.27}%
\contentsline {subsection}{\numberline {4.27.1}Function Documentation}{62}{subsection.4.27.1}%
\contentsline {subsubsection}{\numberline {4.27.1.1}print\_anotation()}{62}{subsubsection.4.27.1.1}%
\contentsline {subsubsection}{\numberline {4.27.1.2}print\_list\_tags()}{62}{subsubsection.4.27.1.2}%
\contentsline {subsubsection}{\numberline {4.27.1.3}read\_childs()}{63}{subsubsection.4.27.1.3}%
\contentsline {subsubsection}{\numberline {4.27.1.4}recursive\_read()}{63}{subsubsection.4.27.1.4}%
\contentsline {subsection}{\numberline {4.27.2}Variable Documentation}{63}{subsection.4.27.2}%
\contentsline {subsubsection}{\numberline {4.27.2.1}anotation}{63}{subsubsection.4.27.2.1}%
\contentsline {subsubsection}{\numberline {4.27.2.2}cnt2}{64}{subsubsection.4.27.2.2}%
\contentsline {subsubsection}{\numberline {4.27.2.3}general\_buffer}{64}{subsubsection.4.27.2.3}%
\contentsline {subsubsection}{\numberline {4.27.2.4}num}{64}{subsubsection.4.27.2.4}%
\contentsline {section}{\numberline {4.28}parser/outprint.h File Reference}{64}{section.4.28}%
\contentsline {subsection}{\numberline {4.28.1}Function Documentation}{64}{subsection.4.28.1}%
\contentsline {subsubsection}{\numberline {4.28.1.1}print\_anotation()}{64}{subsubsection.4.28.1.1}%
\contentsline {subsubsection}{\numberline {4.28.1.2}print\_list\_tags()}{65}{subsubsection.4.28.1.2}%
\contentsline {subsubsection}{\numberline {4.28.1.3}read\_childs()}{65}{subsubsection.4.28.1.3}%
\contentsline {subsubsection}{\numberline {4.28.1.4}recursive\_read()}{65}{subsubsection.4.28.1.4}%
\contentsline {section}{\numberline {4.29}parser/parser.cpp File Reference}{65}{section.4.29}%
\contentsline {subsection}{\numberline {4.29.1}Function Documentation}{66}{subsection.4.29.1}%
\contentsline {subsubsection}{\numberline {4.29.1.1}colect\_caracter()}{66}{subsubsection.4.29.1.1}%
\contentsline {subsubsection}{\numberline {4.29.1.2}insert\_tag()}{67}{subsubsection.4.29.1.2}%
\contentsline {subsubsection}{\numberline {4.29.1.3}is\_not\_key()}{67}{subsubsection.4.29.1.3}%
\contentsline {subsubsection}{\numberline {4.29.1.4}rating\_caracter()}{68}{subsubsection.4.29.1.4}%
\contentsline {subsubsection}{\numberline {4.29.1.5}start\_parse\_file()}{69}{subsubsection.4.29.1.5}%
\contentsline {subsection}{\numberline {4.29.2}Variable Documentation}{69}{subsection.4.29.2}%
\contentsline {subsubsection}{\numberline {4.29.2.1}attribute}{69}{subsubsection.4.29.2.1}%
\contentsline {subsubsection}{\numberline {4.29.2.2}cnt\_id}{69}{subsubsection.4.29.2.2}%
\contentsline {subsubsection}{\numberline {4.29.2.3}father\_tag}{69}{subsubsection.4.29.2.3}%
\contentsline {subsubsection}{\numberline {4.29.2.4}general\_content}{70}{subsubsection.4.29.2.4}%
\contentsline {subsubsection}{\numberline {4.29.2.5}inside\_tag}{70}{subsubsection.4.29.2.5}%
\contentsline {subsubsection}{\numberline {4.29.2.6}is\_a\_comment}{70}{subsubsection.4.29.2.6}%
\contentsline {subsubsection}{\numberline {4.29.2.7}is\_attribute}{70}{subsubsection.4.29.2.7}%
\contentsline {subsubsection}{\numberline {4.29.2.8}on\_tag}{70}{subsubsection.4.29.2.8}%
\contentsline {subsubsection}{\numberline {4.29.2.9}open\_tag}{70}{subsubsection.4.29.2.9}%
\contentsline {subsubsection}{\numberline {4.29.2.10}pos\_caracter}{71}{subsubsection.4.29.2.10}%
\contentsline {subsubsection}{\numberline {4.29.2.11}prev\_char}{71}{subsubsection.4.29.2.11}%
\contentsline {subsubsection}{\numberline {4.29.2.12}tag}{71}{subsubsection.4.29.2.12}%
\contentsline {section}{\numberline {4.30}parser/parser.h File Reference}{71}{section.4.30}%
\contentsline {subsection}{\numberline {4.30.1}Function Documentation}{71}{subsection.4.30.1}%
\contentsline {subsubsection}{\numberline {4.30.1.1}colect\_caracter()}{72}{subsubsection.4.30.1.1}%
\contentsline {subsubsection}{\numberline {4.30.1.2}find\_all\_comments()}{72}{subsubsection.4.30.1.2}%
\contentsline {subsubsection}{\numberline {4.30.1.3}find\_all\_styles()}{72}{subsubsection.4.30.1.3}%
\contentsline {subsubsection}{\numberline {4.30.1.4}find\_doctype()}{72}{subsubsection.4.30.1.4}%
\contentsline {subsubsection}{\numberline {4.30.1.5}insert\_tag()}{73}{subsubsection.4.30.1.5}%
\contentsline {subsubsection}{\numberline {4.30.1.6}is\_not\_key()}{73}{subsubsection.4.30.1.6}%
\contentsline {subsubsection}{\numberline {4.30.1.7}omite\_pieces()}{74}{subsubsection.4.30.1.7}%
\contentsline {subsubsection}{\numberline {4.30.1.8}parse\_file()}{74}{subsubsection.4.30.1.8}%
\contentsline {subsubsection}{\numberline {4.30.1.9}parse\_that\_position()}{74}{subsubsection.4.30.1.9}%
\contentsline {subsubsection}{\numberline {4.30.1.10}print\_events\_on\_file()}{75}{subsubsection.4.30.1.10}%
\contentsline {subsubsection}{\numberline {4.30.1.11}rating\_caracter()}{75}{subsubsection.4.30.1.11}%
\contentsline {subsubsection}{\numberline {4.30.1.12}search\_node\_father()}{75}{subsubsection.4.30.1.12}%
\contentsline {subsubsection}{\numberline {4.30.1.13}start\_parse\_file()}{76}{subsubsection.4.30.1.13}%
\contentsline {section}{\numberline {4.31}parser/purgate.cpp File Reference}{76}{section.4.31}%
\contentsline {subsection}{\numberline {4.31.1}Macro Definition Documentation}{77}{subsection.4.31.1}%
\contentsline {subsubsection}{\numberline {4.31.1.1}N\_IGN\_TAGS}{77}{subsubsection.4.31.1.1}%
\contentsline {subsection}{\numberline {4.31.2}Function Documentation}{77}{subsection.4.31.2}%
\contentsline {subsubsection}{\numberline {4.31.2.1}check\_ignore\_tags()}{77}{subsubsection.4.31.2.1}%
\contentsline {subsubsection}{\numberline {4.31.2.2}purgate\_list()}{77}{subsubsection.4.31.2.2}%
\contentsline {subsection}{\numberline {4.31.3}Variable Documentation}{77}{subsection.4.31.3}%
\contentsline {subsubsection}{\numberline {4.31.3.1}close}{78}{subsubsection.4.31.3.1}%
\contentsline {subsubsection}{\numberline {4.31.3.2}ignore\_tags}{78}{subsubsection.4.31.3.2}%
\contentsline {subsubsection}{\numberline {4.31.3.3}open}{78}{subsubsection.4.31.3.3}%
\contentsline {section}{\numberline {4.32}parser/purgate.h File Reference}{78}{section.4.32}%
\contentsline {subsection}{\numberline {4.32.1}Function Documentation}{78}{subsection.4.32.1}%
\contentsline {subsubsection}{\numberline {4.32.1.1}check\_ignore\_tags()}{78}{subsubsection.4.32.1.1}%
\contentsline {subsubsection}{\numberline {4.32.1.2}purgate\_list()}{79}{subsubsection.4.32.1.2}%
\contentsline {section}{\numberline {4.33}render/inblock\discretionary {\mbox {\scriptsize $\hookleftarrow $}}{}{}\_\discretionary {\mbox {\scriptsize $\hookleftarrow $}}{}{}tags.cpp File Reference}{79}{section.4.33}%
\contentsline {subsection}{\numberline {4.33.1}Function Documentation}{80}{subsection.4.33.1}%
\contentsline {subsubsection}{\numberline {4.33.1.1}render\_body()}{80}{subsubsection.4.33.1.1}%
\contentsline {subsubsection}{\numberline {4.33.1.2}render\_dd()}{80}{subsubsection.4.33.1.2}%
\contentsline {subsubsection}{\numberline {4.33.1.3}render\_div()}{80}{subsubsection.4.33.1.3}%
\contentsline {subsubsection}{\numberline {4.33.1.4}render\_dl()}{81}{subsubsection.4.33.1.4}%
\contentsline {subsubsection}{\numberline {4.33.1.5}render\_dt()}{81}{subsubsection.4.33.1.5}%
\contentsline {subsubsection}{\numberline {4.33.1.6}render\_footer()}{81}{subsubsection.4.33.1.6}%
\contentsline {subsubsection}{\numberline {4.33.1.7}render\_form()}{81}{subsubsection.4.33.1.7}%
\contentsline {subsubsection}{\numberline {4.33.1.8}render\_h1()}{82}{subsubsection.4.33.1.8}%
\contentsline {subsubsection}{\numberline {4.33.1.9}render\_h2()}{82}{subsubsection.4.33.1.9}%
\contentsline {subsubsection}{\numberline {4.33.1.10}render\_h3()}{82}{subsubsection.4.33.1.10}%
\contentsline {subsubsection}{\numberline {4.33.1.11}render\_h4()}{82}{subsubsection.4.33.1.11}%
\contentsline {subsubsection}{\numberline {4.33.1.12}render\_h5()}{83}{subsubsection.4.33.1.12}%
\contentsline {subsubsection}{\numberline {4.33.1.13}render\_h6()}{83}{subsubsection.4.33.1.13}%
\contentsline {subsubsection}{\numberline {4.33.1.14}render\_head()}{83}{subsubsection.4.33.1.14}%
\contentsline {subsubsection}{\numberline {4.33.1.15}render\_header()}{83}{subsubsection.4.33.1.15}%
\contentsline {subsubsection}{\numberline {4.33.1.16}render\_hr()}{84}{subsubsection.4.33.1.16}%
\contentsline {subsubsection}{\numberline {4.33.1.17}render\_html()}{84}{subsubsection.4.33.1.17}%
\contentsline {subsubsection}{\numberline {4.33.1.18}render\_li()}{84}{subsubsection.4.33.1.18}%
\contentsline {subsubsection}{\numberline {4.33.1.19}render\_ol()}{84}{subsubsection.4.33.1.19}%
\contentsline {subsubsection}{\numberline {4.33.1.20}render\_p()}{85}{subsubsection.4.33.1.20}%
\contentsline {subsubsection}{\numberline {4.33.1.21}render\_td()}{85}{subsubsection.4.33.1.21}%
\contentsline {subsubsection}{\numberline {4.33.1.22}render\_tr()}{85}{subsubsection.4.33.1.22}%
\contentsline {subsubsection}{\numberline {4.33.1.23}render\_ul()}{85}{subsubsection.4.33.1.23}%
\contentsline {subsection}{\numberline {4.33.2}Variable Documentation}{86}{subsection.4.33.2}%
\contentsline {subsubsection}{\numberline {4.33.2.1}gen\_cont}{86}{subsubsection.4.33.2.1}%
\contentsline {section}{\numberline {4.34}render/inblock\discretionary {\mbox {\scriptsize $\hookleftarrow $}}{}{}\_\discretionary {\mbox {\scriptsize $\hookleftarrow $}}{}{}tags.h File Reference}{86}{section.4.34}%
\contentsline {subsection}{\numberline {4.34.1}Function Documentation}{86}{subsection.4.34.1}%
\contentsline {subsubsection}{\numberline {4.34.1.1}render\_body()}{86}{subsubsection.4.34.1.1}%
\contentsline {subsubsection}{\numberline {4.34.1.2}render\_dd()}{87}{subsubsection.4.34.1.2}%
\contentsline {subsubsection}{\numberline {4.34.1.3}render\_div()}{87}{subsubsection.4.34.1.3}%
\contentsline {subsubsection}{\numberline {4.34.1.4}render\_dl()}{87}{subsubsection.4.34.1.4}%
\contentsline {subsubsection}{\numberline {4.34.1.5}render\_dt()}{87}{subsubsection.4.34.1.5}%
\contentsline {subsubsection}{\numberline {4.34.1.6}render\_h1()}{88}{subsubsection.4.34.1.6}%
\contentsline {subsubsection}{\numberline {4.34.1.7}render\_h2()}{88}{subsubsection.4.34.1.7}%
\contentsline {subsubsection}{\numberline {4.34.1.8}render\_h3()}{88}{subsubsection.4.34.1.8}%
\contentsline {subsubsection}{\numberline {4.34.1.9}render\_h4()}{88}{subsubsection.4.34.1.9}%
\contentsline {subsubsection}{\numberline {4.34.1.10}render\_h5()}{89}{subsubsection.4.34.1.10}%
\contentsline {subsubsection}{\numberline {4.34.1.11}render\_h6()}{89}{subsubsection.4.34.1.11}%
\contentsline {subsubsection}{\numberline {4.34.1.12}render\_head()}{89}{subsubsection.4.34.1.12}%
\contentsline {subsubsection}{\numberline {4.34.1.13}render\_html()}{89}{subsubsection.4.34.1.13}%
\contentsline {subsubsection}{\numberline {4.34.1.14}render\_li()}{90}{subsubsection.4.34.1.14}%
\contentsline {subsubsection}{\numberline {4.34.1.15}render\_p()}{90}{subsubsection.4.34.1.15}%
\contentsline {subsubsection}{\numberline {4.34.1.16}render\_td()}{90}{subsubsection.4.34.1.16}%
\contentsline {subsubsection}{\numberline {4.34.1.17}render\_tr()}{90}{subsubsection.4.34.1.17}%
\contentsline {subsubsection}{\numberline {4.34.1.18}render\_ul()}{91}{subsubsection.4.34.1.18}%
\contentsline {section}{\numberline {4.35}render/inline\discretionary {\mbox {\scriptsize $\hookleftarrow $}}{}{}\_\discretionary {\mbox {\scriptsize $\hookleftarrow $}}{}{}tags.cpp File Reference}{91}{section.4.35}%
\contentsline {subsection}{\numberline {4.35.1}Function Documentation}{92}{subsection.4.35.1}%
\contentsline {subsubsection}{\numberline {4.35.1.1}render\_a()}{92}{subsubsection.4.35.1.1}%
\contentsline {subsubsection}{\numberline {4.35.1.2}render\_abbr()}{92}{subsubsection.4.35.1.2}%
\contentsline {subsubsection}{\numberline {4.35.1.3}render\_b()}{92}{subsubsection.4.35.1.3}%
\contentsline {subsubsection}{\numberline {4.35.1.4}render\_big()}{93}{subsubsection.4.35.1.4}%
\contentsline {subsubsection}{\numberline {4.35.1.5}render\_button()}{93}{subsubsection.4.35.1.5}%
\contentsline {subsubsection}{\numberline {4.35.1.6}render\_cite()}{93}{subsubsection.4.35.1.6}%
\contentsline {subsubsection}{\numberline {4.35.1.7}render\_code()}{93}{subsubsection.4.35.1.7}%
\contentsline {subsubsection}{\numberline {4.35.1.8}render\_dfn()}{94}{subsubsection.4.35.1.8}%
\contentsline {subsubsection}{\numberline {4.35.1.9}render\_em()}{94}{subsubsection.4.35.1.9}%
\contentsline {subsubsection}{\numberline {4.35.1.10}render\_i()}{94}{subsubsection.4.35.1.10}%
\contentsline {subsubsection}{\numberline {4.35.1.11}render\_img()}{94}{subsubsection.4.35.1.11}%
\contentsline {subsubsection}{\numberline {4.35.1.12}render\_input()}{95}{subsubsection.4.35.1.12}%
\contentsline {subsubsection}{\numberline {4.35.1.13}render\_kdb()}{95}{subsubsection.4.35.1.13}%
\contentsline {subsubsection}{\numberline {4.35.1.14}render\_label()}{95}{subsubsection.4.35.1.14}%
\contentsline {subsubsection}{\numberline {4.35.1.15}render\_q()}{95}{subsubsection.4.35.1.15}%
\contentsline {subsubsection}{\numberline {4.35.1.16}render\_select()}{96}{subsubsection.4.35.1.16}%
\contentsline {subsubsection}{\numberline {4.35.1.17}render\_small()}{96}{subsubsection.4.35.1.17}%
\contentsline {subsubsection}{\numberline {4.35.1.18}render\_span()}{96}{subsubsection.4.35.1.18}%
\contentsline {subsubsection}{\numberline {4.35.1.19}render\_strong()}{96}{subsubsection.4.35.1.19}%
\contentsline {subsubsection}{\numberline {4.35.1.20}render\_textarea()}{97}{subsubsection.4.35.1.20}%
\contentsline {subsubsection}{\numberline {4.35.1.21}render\_title()}{97}{subsubsection.4.35.1.21}%
\contentsline {subsubsection}{\numberline {4.35.1.22}render\_var()}{97}{subsubsection.4.35.1.22}%
\contentsline {subsection}{\numberline {4.35.2}Variable Documentation}{97}{subsection.4.35.2}%
\contentsline {subsubsection}{\numberline {4.35.2.1}gen\_cont}{97}{subsubsection.4.35.2.1}%
\contentsline {section}{\numberline {4.36}render/inline\discretionary {\mbox {\scriptsize $\hookleftarrow $}}{}{}\_\discretionary {\mbox {\scriptsize $\hookleftarrow $}}{}{}tags.h File Reference}{98}{section.4.36}%
\contentsline {subsection}{\numberline {4.36.1}Function Documentation}{98}{subsection.4.36.1}%
\contentsline {subsubsection}{\numberline {4.36.1.1}render\_a()}{98}{subsubsection.4.36.1.1}%
\contentsline {subsubsection}{\numberline {4.36.1.2}render\_abbr()}{99}{subsubsection.4.36.1.2}%
\contentsline {subsubsection}{\numberline {4.36.1.3}render\_b()}{99}{subsubsection.4.36.1.3}%
\contentsline {subsubsection}{\numberline {4.36.1.4}render\_big()}{99}{subsubsection.4.36.1.4}%
\contentsline {subsubsection}{\numberline {4.36.1.5}render\_button()}{99}{subsubsection.4.36.1.5}%
\contentsline {subsubsection}{\numberline {4.36.1.6}render\_cite()}{100}{subsubsection.4.36.1.6}%
\contentsline {subsubsection}{\numberline {4.36.1.7}render\_code()}{100}{subsubsection.4.36.1.7}%
\contentsline {subsubsection}{\numberline {4.36.1.8}render\_dfn()}{100}{subsubsection.4.36.1.8}%
\contentsline {subsubsection}{\numberline {4.36.1.9}render\_em()}{100}{subsubsection.4.36.1.9}%
\contentsline {subsubsection}{\numberline {4.36.1.10}render\_i()}{101}{subsubsection.4.36.1.10}%
\contentsline {subsubsection}{\numberline {4.36.1.11}render\_img()}{101}{subsubsection.4.36.1.11}%
\contentsline {subsubsection}{\numberline {4.36.1.12}render\_input()}{101}{subsubsection.4.36.1.12}%
\contentsline {subsubsection}{\numberline {4.36.1.13}render\_kdb()}{101}{subsubsection.4.36.1.13}%
\contentsline {subsubsection}{\numberline {4.36.1.14}render\_label()}{102}{subsubsection.4.36.1.14}%
\contentsline {subsubsection}{\numberline {4.36.1.15}render\_q()}{102}{subsubsection.4.36.1.15}%
\contentsline {subsubsection}{\numberline {4.36.1.16}render\_select()}{102}{subsubsection.4.36.1.16}%
\contentsline {subsubsection}{\numberline {4.36.1.17}render\_small()}{102}{subsubsection.4.36.1.17}%
\contentsline {subsubsection}{\numberline {4.36.1.18}render\_span()}{103}{subsubsection.4.36.1.18}%
\contentsline {subsubsection}{\numberline {4.36.1.19}render\_strong()}{103}{subsubsection.4.36.1.19}%
\contentsline {subsubsection}{\numberline {4.36.1.20}render\_textarea()}{103}{subsubsection.4.36.1.20}%
\contentsline {subsubsection}{\numberline {4.36.1.21}render\_title()}{103}{subsubsection.4.36.1.21}%
\contentsline {subsubsection}{\numberline {4.36.1.22}render\_var()}{104}{subsubsection.4.36.1.22}%
\contentsline {section}{\numberline {4.37}render/styles.h File Reference}{104}{section.4.37}%
\contentsline {subsection}{\numberline {4.37.1}Macro Definition Documentation}{104}{subsection.4.37.1}%
\contentsline {subsubsection}{\numberline {4.37.1.1}BLACK}{104}{subsubsection.4.37.1.1}%
\contentsline {subsubsection}{\numberline {4.37.1.2}BLUE}{105}{subsubsection.4.37.1.2}%
\contentsline {subsubsection}{\numberline {4.37.1.3}BOLDBLACK}{105}{subsubsection.4.37.1.3}%
\contentsline {subsubsection}{\numberline {4.37.1.4}BOLDBLUE}{105}{subsubsection.4.37.1.4}%
\contentsline {subsubsection}{\numberline {4.37.1.5}BOLDCYAN}{105}{subsubsection.4.37.1.5}%
\contentsline {subsubsection}{\numberline {4.37.1.6}BOLDGREEN}{105}{subsubsection.4.37.1.6}%
\contentsline {subsubsection}{\numberline {4.37.1.7}BOLDMAGENTA}{105}{subsubsection.4.37.1.7}%
\contentsline {subsubsection}{\numberline {4.37.1.8}BOLDRED}{105}{subsubsection.4.37.1.8}%
\contentsline {subsubsection}{\numberline {4.37.1.9}BOLDWHITE}{105}{subsubsection.4.37.1.9}%
\contentsline {subsubsection}{\numberline {4.37.1.10}BOLDYELLOW}{106}{subsubsection.4.37.1.10}%
\contentsline {subsubsection}{\numberline {4.37.1.11}CYAN}{106}{subsubsection.4.37.1.11}%
\contentsline {subsubsection}{\numberline {4.37.1.12}GREEN}{106}{subsubsection.4.37.1.12}%
\contentsline {subsubsection}{\numberline {4.37.1.13}ITALIC}{106}{subsubsection.4.37.1.13}%
\contentsline {subsubsection}{\numberline {4.37.1.14}MAGENTA}{106}{subsubsection.4.37.1.14}%
\contentsline {subsubsection}{\numberline {4.37.1.15}NEGRITA}{106}{subsubsection.4.37.1.15}%
\contentsline {subsubsection}{\numberline {4.37.1.16}RED}{106}{subsubsection.4.37.1.16}%
\contentsline {subsubsection}{\numberline {4.37.1.17}RESET}{106}{subsubsection.4.37.1.17}%
\contentsline {subsubsection}{\numberline {4.37.1.18}UNDERLINE}{107}{subsubsection.4.37.1.18}%
\contentsline {subsubsection}{\numberline {4.37.1.19}WHITE}{107}{subsubsection.4.37.1.19}%
\contentsline {subsubsection}{\numberline {4.37.1.20}YELLOW}{107}{subsubsection.4.37.1.20}%
\contentsline {section}{\numberline {4.38}render/tags\discretionary {\mbox {\scriptsize $\hookleftarrow $}}{}{}\_\discretionary {\mbox {\scriptsize $\hookleftarrow $}}{}{}controller.cpp File Reference}{107}{section.4.38}%
\contentsline {subsection}{\numberline {4.38.1}Macro Definition Documentation}{108}{subsection.4.38.1}%
\contentsline {subsubsection}{\numberline {4.38.1.1}INBLOCK}{108}{subsubsection.4.38.1.1}%
\contentsline {subsubsection}{\numberline {4.38.1.2}INLINE}{108}{subsubsection.4.38.1.2}%
\contentsline {subsection}{\numberline {4.38.2}Function Documentation}{108}{subsection.4.38.2}%
\contentsline {subsubsection}{\numberline {4.38.2.1}check\_type()}{108}{subsubsection.4.38.2.1}%
\contentsline {subsubsection}{\numberline {4.38.2.2}element\_node()}{109}{subsubsection.4.38.2.2}%
\contentsline {subsubsection}{\numberline {4.38.2.3}inblock\_lb()}{109}{subsubsection.4.38.2.3}%
\contentsline {subsubsection}{\numberline {4.38.2.4}inline\_lb()}{110}{subsubsection.4.38.2.4}%
\contentsline {subsubsection}{\numberline {4.38.2.5}render\_list()}{111}{subsubsection.4.38.2.5}%
\contentsline {subsubsection}{\numberline {4.38.2.6}render\_root()}{112}{subsubsection.4.38.2.6}%
\contentsline {subsubsection}{\numberline {4.38.2.7}str2int()}{112}{subsubsection.4.38.2.7}%
\contentsline {subsection}{\numberline {4.38.3}Variable Documentation}{112}{subsection.4.38.3}%
\contentsline {subsubsection}{\numberline {4.38.3.1}gen\_cont}{112}{subsubsection.4.38.3.1}%
\contentsline {subsubsection}{\numberline {4.38.3.2}inblock\_tags}{113}{subsubsection.4.38.3.2}%
\contentsline {subsubsection}{\numberline {4.38.3.3}inline\_tags}{113}{subsubsection.4.38.3.3}%
\contentsline {subsubsection}{\numberline {4.38.3.4}total\_lines}{113}{subsubsection.4.38.3.4}%
\contentsline {section}{\numberline {4.39}render/tags\discretionary {\mbox {\scriptsize $\hookleftarrow $}}{}{}\_\discretionary {\mbox {\scriptsize $\hookleftarrow $}}{}{}controller.h File Reference}{113}{section.4.39}%
\contentsline {subsection}{\numberline {4.39.1}Function Documentation}{114}{subsection.4.39.1}%
\contentsline {subsubsection}{\numberline {4.39.1.1}check\_type()}{114}{subsubsection.4.39.1.1}%
\contentsline {subsubsection}{\numberline {4.39.1.2}element\_node()}{114}{subsubsection.4.39.1.2}%
\contentsline {subsubsection}{\numberline {4.39.1.3}inblock\_lb()}{115}{subsubsection.4.39.1.3}%
\contentsline {subsubsection}{\numberline {4.39.1.4}inline\_lb()}{116}{subsubsection.4.39.1.4}%
\contentsline {subsubsection}{\numberline {4.39.1.5}render\_list()}{117}{subsubsection.4.39.1.5}%
\contentsline {subsubsection}{\numberline {4.39.1.6}render\_root()}{117}{subsubsection.4.39.1.6}%
\contentsline {subsubsection}{\numberline {4.39.1.7}set\_enable\_colors()}{117}{subsubsection.4.39.1.7}%
\contentsline {chapter}{Index}{119}{section*.58}%
