^C:\USERS\JAVIER\APPDATA\LOCAL\TEMP\.NETFRAMEWORK,VERSION=V4.5.2.ASSEMBLYATTRIBUTES.CPP
Z:\DAM\CANOA\SRC\04_INTERFACE\SIMPLE_INTERFACE\SIMPLE_INTERFACE\DEBUG\VC140.PDB
Z:\DAM\CANOA\SRC\04_INTERFACE\SIMPLE_INTERFACE\SIMPLE_INTERFACE\DEBUG\.NETFRAMEWORK,VERSION=V4.5.2.ASSEMBLYATTRIBUTES.OBJ
Z:\DAM\CANOA\SRC\04_INTERFACE\SIMPLE_INTERFACE\SIMPLE_INTERFACE\DEBUG\.NETFRAMEWORK,VERSION=V4.5.2.ASSEMBLYATTRIBUTES.ASM
^Z:\DAM\CANOA\SRC\04_INTERFACE\SIMPLE_INTERFACE\SIMPLE_INTERFACE\FORM1.CPP
Z:\DAM\CANOA\SRC\04_INTERFACE\SIMPLE_INTERFACE\SIMPLE_INTERFACE\DEBUG\VC140.PDB
Z:\DAM\CANOA\SRC\04_INTERFACE\SIMPLE_INTERFACE\SIMPLE_INTERFACE\DEBUG\FORM1.OBJ
